<?xml version="1.0" encoding="utf-8"?>
<svg version="1.1" id="Layer_1"
xmlns="http://www.w3.org/2000/svg"
xmlns:xlink="http://www.w3.org/1999/xlink"
width="562px" height="100px"
xml:space="preserve">
<g id="PathID_216" transform="matrix(1, 0, 0, 1, -39.4, -108.1)">
<path style="fill:#000000;fill-opacity:1" d="M328.55 204.65L328.3 204.7L313.05 204.7L312.85 204.65L312.65 204.5L248.9 109.05L40.35 109.05L40.35 110.85L247.2 110.85L247.45 110.9L247.6 111.05L311.55 206.5L329.85 206.5L393.6 111.05L393.8 110.9L394 110.85L600.2 110.85L600.2 109.05L392.5 109.05L328.7 204.5L328.55 204.65M601 108.25L601.15 108.55L601.15 111.3L601 111.65L600.65 111.8L394.3 111.8L330.5 207.25L330.35 207.4L330.1 207.45L311.25 207.45L311.05 207.4L310.85 207.25L246.95 111.8L39.85 111.8L39.55 111.65L39.4 111.3L39.4 108.55Q39.4 108.35 39.55 108.25Q39.65 108.1 39.85 108.1L249.15 108.1L249.4 108.15L249.55 108.3L313.35 203.75L328.05 203.75L391.8 108.3L392 108.15L392.2 108.1L600.65 108.1Q600.85 108.1 601 108.25" />
<path style="fill:#FF00FF;fill-opacity:1" d="M328.7 204.5L392.5 109.05L600.2 109.05L600.2 110.85L394 110.85L393.8 110.9L393.6 111.05L329.85 206.5L311.55 206.5L247.6 111.05L247.45 110.9L247.2 110.85L40.35 110.85L40.35 109.05L248.9 109.05L312.65 204.5L312.85 204.65L313.05 204.7L328.3 204.7L328.55 204.65L328.7 204.5" />
</g>
</svg>
