<?xml version="1.0" encoding="utf-8"?>
<svg version="1.1" id="Layer_1"
xmlns="http://www.w3.org/2000/svg"
xmlns:xlink="http://www.w3.org/1999/xlink"
width="562px" height="208px"
xml:space="preserve">
<g id="PathID_215" transform="matrix(1, 0, 0, 1, -39.4, -107.75)">
<path style="fill:#000000;fill-opacity:1" d="M514.35 311.9L600.65 311.9Q600.85 311.9 601 312.05L601.15 312.35L601.15 315.1L601 315.45L600.65 315.6L512.7 315.6L512.5 315.55L512.35 315.4L354.75 111.6L354.95 111.6L355.25 111.5L355.3 111.45L355.45 111.1L355.45 110.95L512.95 314.65L600.2 314.65L600.2 312.85L514.1 312.85L513.9 312.8L513.75 312.65L356.4 108.75L356.6 108.75L356.9 108.65L356.95 108.6L357.1 108.25L357.1 108.1L514.35 311.9M127.45 312.65L127.25 312.8L127.05 312.85L40.35 312.85L40.35 314.65L128.25 314.65L285.4 110.95L285.35 111.1L285.5 111.45L285.55 111.5L285.85 111.6L286.1 111.6L128.9 315.4L128.7 315.55L128.5 315.6L39.85 315.6L39.55 315.45L39.4 315.1L39.4 312.35Q39.4 312.15 39.55 312.05Q39.65 311.9 39.85 311.9L126.8 311.9L284.15 108.1L284.1 108.25L284.25 108.6L284.3 108.65L284.6 108.75L284.85 108.75L127.45 312.65" />
<path style="fill:#323230;fill-opacity:1" d="M284.85 108.75L284.6 108.75L284.3 108.65L284.25 108.6L284.1 108.25L284.15 108.1L284.25 107.9L284.6 107.75L356.6 107.75L356.95 107.9L357.1 108.1L357.1 108.25L356.95 108.6L356.9 108.65L356.6 108.75L356.4 108.75L284.85 108.75M286.1 111.6L285.85 111.6L285.55 111.5L285.5 111.45L285.35 111.1L285.4 110.95L285.5 110.75L285.85 110.6L354.95 110.6Q355.15 110.6 355.3 110.75L355.45 110.95L355.45 111.1L355.3 111.45L355.25 111.5L354.95 111.6L354.75 111.6L286.1 111.6" />
<path style="fill:#FFFF00;fill-opacity:1" d="M284.85 108.75L356.4 108.75L513.75 312.65L513.9 312.8L514.1 312.85L600.2 312.85L600.2 314.65L512.95 314.65L355.45 110.95L355.3 110.75Q355.15 110.6 354.95 110.6L285.85 110.6L285.5 110.75L285.4 110.95L128.25 314.65L40.35 314.65L40.35 312.85L127.05 312.85L127.25 312.8L127.45 312.65L284.85 108.75" />
</g>
</svg>
