<?xml version="1.0" encoding="utf-8"?>
<svg version="1.1" id="Layer_1"
xmlns="http://www.w3.org/2000/svg"
xmlns:xlink="http://www.w3.org/1999/xlink"
width="562px" height="4px"
xml:space="preserve">
<g id="PathID_211" transform="matrix(1, 0, 0, 1, -39.4, -223.6)">
<path style="fill:#FF0000;fill-opacity:1" d="M504.2 224.55L504.2 226.5L472.3 226.5L472.3 224.55L504.2 224.55M359.55 226.5L359.55 224.55L391.4 224.55L391.4 226.5L359.55 226.5M584.15 226.5L584.15 224.55L600.2 224.55L600.2 226.5L584.15 226.5M136.45 226.5L136.45 224.55L168.35 224.55L168.35 226.5L136.45 226.5M56.4 224.55L56.4 226.5L40.35 226.5L40.35 224.55L56.4 224.55M248 226.5L248 224.55L279.9 224.55L279.9 226.5L248 226.5" />
<path style="fill:#000000;fill-opacity:1" d="M505.15 227.45L471.35 227.45L471.35 223.6L505.15 223.6L505.15 227.45M472.3 224.55L472.3 226.5L504.2 226.5L504.2 224.55L472.3 224.55M358.6 223.6L392.35 223.6L392.35 227.45L358.6 227.45L358.6 223.6M391.4 226.5L391.4 224.55L359.55 224.55L359.55 226.5L391.4 226.5M600.2 226.5L600.2 224.55L584.15 224.55L584.15 226.5L600.2 226.5M583.2 223.6L601.15 223.6L601.15 227.45L583.2 227.45L583.2 223.6M135.5 223.6L169.3 223.6L169.3 227.45L135.5 227.45L135.5 223.6M168.35 226.5L168.35 224.55L136.45 224.55L136.45 226.5L168.35 226.5M57.35 227.45L39.4 227.45L39.4 223.6L57.35 223.6L57.35 227.45M40.35 224.55L40.35 226.5L56.4 226.5L56.4 224.55L40.35 224.55M279.9 226.5L279.9 224.55L248 224.55L248 226.5L279.9 226.5M247.05 223.6L280.85 223.6L280.85 227.45L247.05 227.45L247.05 223.6" />
</g>
</svg>
