<?xml version="1.0" encoding="utf-8"?>
<svg version="1.1" id="Layer_1"
xmlns="http://www.w3.org/2000/svg"
xmlns:xlink="http://www.w3.org/1999/xlink"
width="562px" height="4px"
xml:space="preserve">
<g id="PathID_203" transform="matrix(1, 0, 0, 1, -39.4, -87.25)">
<path style="fill:#000000;fill-opacity:1" d="M583.2 87.25L601.15 87.25L601.15 91L583.2 91L583.2 87.25M600.2 90.05L600.2 88.2L584.15 88.2L584.15 90.05L600.2 90.05M504.2 90.05L504.2 88.2L472.3 88.2L472.3 90.05L504.2 90.05M471.35 87.25L505.15 87.25L505.15 91L471.35 91L471.35 87.25M358.6 87.25L392.35 87.25L392.35 91L358.6 91L358.6 87.25M391.4 90.05L391.4 88.2L359.55 88.2L359.55 90.05L391.4 90.05M280.85 91L247.05 91L247.05 87.25L280.85 87.25L280.85 91M248 88.2L248 90.05L279.9 90.05L279.9 88.2L248 88.2M168.35 90.05L168.35 88.2L136.45 88.2L136.45 90.05L168.35 90.05M135.5 87.25L169.3 87.25L169.3 91L135.5 91L135.5 87.25M40.35 88.2L40.35 90.05L56.4 90.05L56.4 88.2L40.35 88.2M57.35 91L39.4 91L39.4 87.25L57.35 87.25L57.35 91" />
<path style="fill:#00FF00;fill-opacity:1" d="M584.15 90.05L584.15 88.2L600.2 88.2L600.2 90.05L584.15 90.05M472.3 90.05L472.3 88.2L504.2 88.2L504.2 90.05L472.3 90.05M359.55 90.05L359.55 88.2L391.4 88.2L391.4 90.05L359.55 90.05M279.9 88.2L279.9 90.05L248 90.05L248 88.2L279.9 88.2M136.45 90.05L136.45 88.2L168.35 88.2L168.35 90.05L136.45 90.05M56.4 88.2L56.4 90.05L40.35 90.05L40.35 88.2L56.4 88.2" />
</g>
</svg>
