<?xml version="1.0" encoding="utf-8"?>
<svg version="1.1" id="Layer_1"
xmlns="http://www.w3.org/2000/svg"
xmlns:xlink="http://www.w3.org/1999/xlink"
width="562px" height="208px"
xml:space="preserve">
<g id="PathID_214" transform="matrix(1, 0, 0, 1, -39.4, -133.35)">
<path style="fill:#000000;fill-opacity:1" d="M357.1 340.65L356.95 340.3L356.9 340.25L356.6 340.15L356.4 340.15L513.75 136.25Q513.8 136.15 513.9 136.15L514.1 136.1L600.2 136.1L600.2 134.3L512.95 134.3L355.45 338L355.45 337.8L355.3 337.45L355.25 337.4L354.95 337.3L354.75 337.3L512.35 133.5L512.5 133.4L512.7 133.35L600.65 133.35Q600.85 133.35 601 133.5L601.15 133.8L601.15 136.55L601 136.9L600.65 137.05L514.35 137.05L357.1 340.85L357.1 340.65M285.85 337.3L285.55 337.4L285.5 337.45L285.35 337.8L285.4 338L128.25 134.3L40.35 134.3L40.35 136.1L127.05 136.1L127.25 136.15L127.45 136.25L284.85 340.15L284.6 340.15L284.3 340.25L284.25 340.3L284.1 340.65L284.15 340.85L126.8 137.05L39.85 137.05L39.55 136.9L39.4 136.55L39.4 133.8Q39.4 133.6 39.55 133.5Q39.65 133.35 39.85 133.35L128.5 133.35L128.7 133.4L128.9 133.5L286.1 337.3L285.85 337.3" />
<path style="fill:#F26522;fill-opacity:1" d="M284.85 340.15L127.45 136.25L127.25 136.15L127.05 136.1L40.35 136.1L40.35 134.3L128.25 134.3L285.4 338L285.5 338.15L285.85 338.3L354.95 338.3L355.3 338.15L355.45 338L512.95 134.3L600.2 134.3L600.2 136.1L514.1 136.1L513.9 136.15Q513.8 136.15 513.75 136.25L356.4 340.15L284.85 340.15" />
<path style="fill:#323230;fill-opacity:1" d="M355.3 338.15L354.95 338.3L285.85 338.3L285.5 338.15L285.4 338L285.35 337.8L285.5 337.45L285.55 337.4L285.85 337.3L286.1 337.3L354.75 337.3L354.95 337.3L355.25 337.4L355.3 337.45L355.45 337.8L355.45 338L355.3 338.15M284.1 340.65L284.25 340.3L284.3 340.25L284.6 340.15L284.85 340.15L356.4 340.15L356.6 340.15L356.9 340.25L356.95 340.3L357.1 340.65L357.1 340.85L356.95 341L356.6 341.15L284.6 341.15L284.25 341L284.15 340.85L284.1 340.65" />
</g>
</svg>
