<?xml version="1.0" encoding="utf-8"?>
<svg version="1.1" id="Layer_1"
xmlns="http://www.w3.org/2000/svg"
xmlns:xlink="http://www.w3.org/1999/xlink"
width="563px" height="173px"
xml:space="preserve">
<g id="PathID_157" transform="matrix(1, 0, 0, 1, 0, 0)">
<path style="fill:#000000;fill-opacity:1" d="M562 1L562 0L563 0L563 3.6L562.5 4.1L492.5 4.1Q487.25 4.1 482.3 6.15Q477.35 8.2 473.6 11.95L322.3 163.25Q318 167.6 312.3 169.95L312.3 169.9Q306.55 172.3 300.45 172.3L262.85 172.3Q256.75 172.3 251.05 169.9L251.05 169.95Q245.35 167.6 241.05 163.25L89.75 11.95Q86 8.2 81.05 6.15Q76.1 4.1 70.8 4.1L0.5 4.1L0 3.6L0 0L1 0L1 1L1 2.35L1 3.1L70.8 3.1Q76.3 3.1 81.45 5.25Q86.6 7.4 90.45 11.25L241.75 162.55Q245.95 166.75 251.45 169Q256.95 171.3 262.85 171.3L300.45 171.3Q306.35 171.3 311.9 169Q317.4 166.75 321.6 162.55L472.9 11.25Q476.75 7.4 481.9 5.25Q487.05 3.1 492.5 3.1L562 3.1L562 2.35L562 1" />
<path style="fill:#AF5F00;fill-opacity:1" d="M70.8 2.35Q76.45 2.35 81.75 4.55Q87.05 6.75 91 10.7L242.3 162Q246.4 166.05 251.75 168.3Q257.1 170.5 262.85 170.5L300.45 170.5Q306.2 170.5 311.6 168.3Q316.95 166.05 321.05 162L472.35 10.7Q476.35 6.75 481.65 4.55Q486.9 2.35 492.5 2.35L562 2.35L562 3.1L492.5 3.1Q487.05 3.1 481.9 5.25Q476.75 7.4 472.9 11.25L321.6 162.55Q317.4 166.75 311.9 169Q306.35 171.3 300.45 171.3L262.85 171.3Q256.95 171.3 251.45 169Q245.95 166.75 241.75 162.55L90.45 11.25Q86.6 7.4 81.45 5.25Q76.3 3.1 70.8 3.1L1 3.1L1 2.35L70.8 2.35" />
<path style="fill:#FF9800;fill-opacity:1" d="M562 1L562 2.35L492.5 2.35Q486.9 2.35 481.65 4.55Q476.35 6.75 472.35 10.7L321.05 162Q316.95 166.05 311.6 168.3Q306.2 170.5 300.45 170.5L262.85 170.5Q257.1 170.5 251.75 168.3Q246.4 166.05 242.3 162L91 10.7Q87.05 6.75 81.75 4.55Q76.45 2.35 70.8 2.35L1 2.35L1 1L70.8 1Q76.7 1 82.25 3.3L82.25 3.35Q87.75 5.6 91.95 9.75L243.25 161.05Q247.1 164.95 252.25 167.05L252.25 167Q257.4 169.15 262.85 169.15L300.45 169.15Q305.95 169.15 311.1 167L311.1 167.05Q316.2 164.95 320.1 161.05L471.4 9.75Q475.6 5.6 481.1 3.35L481.1 3.3Q486.6 1 492.5 1L562 1" />
<path style="fill:#A75A00;fill-opacity:1" d="M70.8 0Q76.9 0 82.65 2.4Q88.35 4.75 92.65 9.05L243.95 160.35Q247.7 164.05 252.65 166.1Q257.6 168.15 262.85 168.15L300.45 168.15Q305.75 168.15 310.7 166.1Q315.6 164.05 319.4 160.35L470.7 9.05Q475 4.75 480.7 2.4Q486.4 0 492.5 0L562 0L562 1L492.5 1Q486.6 1 481.1 3.3L481.1 3.35Q475.6 5.6 471.4 9.75L320.1 161.05Q316.2 164.95 311.1 167.05L311.1 167Q305.95 169.15 300.45 169.15L262.85 169.15Q257.4 169.15 252.25 167L252.25 167.05Q247.1 164.95 243.25 161.05L91.95 9.75Q87.75 5.6 82.25 3.35L82.25 3.3Q76.7 1 70.8 1L1 1L1 0L70.8 0" />
</g>
</svg>
