<?xml version="1.0" encoding="utf-8"?>
<svg version="1.1" id="Layer_1"
xmlns="http://www.w3.org/2000/svg"
xmlns:xlink="http://www.w3.org/1999/xlink"
width="563px" height="70px"
xml:space="preserve">
<g id="PathID_160" transform="matrix(1, 0, 0, 1, 0, 0)">
<path style="fill:#000000;fill-opacity:1" d="M562 65.65L563 65.65L563 69.25L562.5 69.75L370.05 69.75Q363.25 69.75 356.85 67.1Q350.45 64.45 345.65 59.65L296.35 10.3Q293.45 7.35 289.55 5.75Q285.7 4.15 281.55 4.1L281.5 4.1Q277.35 4.1 273.5 5.7Q269.65 7.3 266.7 10.25L217.3 59.65Q212.5 64.45 206.1 67.1Q199.75 69.75 192.95 69.75L0.5 69.75L0 69.25L0 65.65L1 65.65L1 66.65L1 68L1 68.75L192.95 68.75Q199.55 68.75 205.7 66.2Q211.9 63.65 216.6 58.95L266 9.55Q269.05 6.5 273.1 4.8Q277.15 3.1 281.5 3.1L281.55 3.1Q285.9 3.15 289.95 4.85Q294.05 6.55 297.05 9.6L346.35 58.95Q351.05 63.65 357.25 66.2Q363.45 68.75 370.05 68.75L562 68.75L562 68L562 66.65L562 65.65" />
<path style="fill:#00A546;fill-opacity:1" d="M370.05 68Q363.55 68 357.55 65.5Q351.5 63 346.9 58.4L297.65 9.05Q294.45 5.85 290.3 4.15Q286.05 2.35 281.55 2.35L281.5 2.35Q277 2.35 272.85 4.15Q268.6 5.85 265.45 9L216.05 58.4Q211.5 63 205.45 65.5Q199.4 68 192.95 68L1 68L1 66.65L192.95 66.65Q199.15 66.65 204.95 64.25Q210.75 61.8 215.1 57.45L264.5 8.05Q267.85 4.7 272.3 2.85Q276.75 1 281.5 1L281.55 1Q286.3 1 290.75 2.85Q295.2 4.7 298.6 8.05L347.85 57.45Q352.2 61.8 358.05 64.25Q363.85 66.65 370.05 66.65L562 66.65L562 68L370.05 68" />
<path style="fill:#005C27;fill-opacity:1" d="M192.95 65.65Q198.95 65.65 204.55 63.35Q210.15 61 214.4 56.75L263.8 7.35Q267.25 3.9 271.9 1.95Q276.55 0 281.5 0L281.55 0Q286.5 0 291.15 1.95Q295.8 3.9 299.3 7.35L348.55 56.75Q352.8 61 358.45 63.35Q364.05 65.65 370.05 65.65L562 65.65L562 66.65L370.05 66.65Q363.85 66.65 358.05 64.25Q352.2 61.8 347.85 57.45L298.6 8.05Q295.2 4.7 290.75 2.85Q286.3 1 281.55 1L281.5 1Q276.75 1 272.3 2.85Q267.85 4.7 264.5 8.05L215.1 57.45Q210.75 61.8 204.95 64.25Q199.15 66.65 192.95 66.65L1 66.65L1 65.65L192.95 65.65" />
<path style="fill:#00682C;fill-opacity:1" d="M562 68L562 68.75L370.05 68.75Q363.45 68.75 357.25 66.2Q351.05 63.65 346.35 58.95L297.05 9.6Q294.05 6.55 289.95 4.85Q285.9 3.15 281.55 3.1L281.5 3.1Q277.15 3.1 273.1 4.8Q269.05 6.5 266 9.55L216.6 58.95Q211.9 63.65 205.7 66.2Q199.55 68.75 192.95 68.75L1 68.75L1 68L192.95 68Q199.4 68 205.45 65.5Q211.5 63 216.05 58.4L265.45 9Q268.6 5.85 272.85 4.15Q277 2.35 281.5 2.35L281.55 2.35Q286.05 2.35 290.3 4.15Q294.45 5.85 297.65 9.05L346.9 58.4Q351.5 63 357.55 65.5Q363.55 68 370.05 68L562 68" />
</g>
</svg>
