<?xml version="1.0" encoding="utf-8"?>
<svg version="1.1" id="Layer_1"
xmlns="http://www.w3.org/2000/svg"
xmlns:xlink="http://www.w3.org/1999/xlink"
width="562px" height="4px"
xml:space="preserve">
<g id="PathID_204" transform="matrix(1, 0, 0, 1, -39.4, -358.85)">
<path style="fill:#0000FF;fill-opacity:1" d="M391.4 359.8L391.4 361.6L359.55 361.6L359.55 359.8L391.4 359.8M504.2 361.6L472.3 361.6L472.3 359.8L504.2 359.8L504.2 361.6M600.2 359.8L600.2 361.6L584.15 361.6L584.15 359.8L600.2 359.8M56.4 361.6L40.35 361.6L40.35 359.8L56.4 359.8L56.4 361.6M168.35 359.8L168.35 361.6L136.45 361.6L136.45 359.8L168.35 359.8M279.9 359.8L279.9 361.6L248 361.6L248 359.8L279.9 359.8" />
<path style="fill:#000000;fill-opacity:1" d="M359.55 359.8L359.55 361.6L391.4 361.6L391.4 359.8L359.55 359.8M392.35 362.55L358.6 362.55L358.6 358.85L392.35 358.85L392.35 362.55M504.2 359.8L472.3 359.8L472.3 361.6L504.2 361.6L504.2 359.8M471.35 362.55L471.35 358.85L505.15 358.85L505.15 362.55L471.35 362.55M584.15 359.8L584.15 361.6L600.2 361.6L600.2 359.8L584.15 359.8M601.15 362.55L583.2 362.55L583.2 358.85L601.15 358.85L601.15 362.55M56.4 359.8L40.35 359.8L40.35 361.6L56.4 361.6L56.4 359.8M39.4 362.55L39.4 358.85L57.35 358.85L57.35 362.55L39.4 362.55M136.45 359.8L136.45 361.6L168.35 361.6L168.35 359.8L136.45 359.8M169.3 362.55L135.5 362.55L135.5 358.85L169.3 358.85L169.3 362.55M248 359.8L248 361.6L279.9 361.6L279.9 359.8L248 359.8M280.85 362.55L247.05 362.55L247.05 358.85L280.85 358.85L280.85 362.55" />
</g>
</svg>
