<?xml version="1.0" encoding="utf-8"?>
<svg version="1.1" id="Layer_1"
xmlns="http://www.w3.org/2000/svg"
xmlns:xlink="http://www.w3.org/1999/xlink"
width="16px" height="16px"
xml:space="preserve">
<g id="PathID_93" transform="matrix(1, 0, 0, 1, 0, 0)">
<pattern 
id="PatternID_92" patternUnits="userSpaceOnUse" overflow="visible" width="16" height="16" viewBox="0 0 16 16" patternTransform="matrix(1, 0, 0, 1, 0, 0)"
>
<image 
width="16" height="16"
xlink:href="data:image/png;base64,
iVBORw0KGgoAAAANSUhEUgAAABAAAAAQCAYAAAAf8/9hAAAAnUlEQVR4nGOsY2D4z0ABYKJEMwMDAwMLNkGjdEYGtzZGBk6hfyjiu8sZGI50ETDAexIjg1nufwZifQY3QECLiyF5+TcGPj3SggQeBtYZ3xn49BAS398xMfRrcxFvwNa8/wz3dkPY93YzMEyR4mb4cO0bQQNQwmCtLy+DQf5naEB9JqgZxQUMDAwMX35+xghlkgwgB4wawMDAOOC5EQCpCCVxr5tAGwAAAABJRU5ErkJggj=="
>
</image>
</pattern>
<path style="fill:url(#PatternID_92) " d="M0 0L16 0L16 16L0 16L0 0" />
</g>
</svg>
