<?xml version="1.0" encoding="utf-8"?>
<svg version="1.1" id="Layer_1"
xmlns="http://www.w3.org/2000/svg"
xmlns:xlink="http://www.w3.org/1999/xlink"
width="562px" height="44px"
xml:space="preserve">
<g id="PathID_208" transform="matrix(1, 0, 0, 1, -39.4, -295.1)">
<path style="fill:#00A651;fill-opacity:1" d="M367.3 296.4L388 327.4L386.2 328.4L365.5 297.4L367.3 296.4M504.2 336L504.2 337.8L472.3 337.8L472.3 336L504.2 336M584.15 336L600.2 336L600.2 337.8L584.15 337.8L584.15 336M40.35 336L56.4 336L56.4 337.8L40.35 337.8L40.35 336M168.35 336L168.35 337.8L136.45 337.8L136.45 336L168.35 336M253.25 327.35L273.95 296.35L275.85 297.45L255.15 328.45L253.25 327.35" />
<path style="fill:#000000;fill-opacity:1" d="M389.4 327.7L385.9 329.7L364.15 297.1L367.6 295.15L389.4 327.7M365.5 297.4L386.2 328.4L388 327.4L367.3 296.4L365.5 297.4M505.15 338.75L471.35 338.75L471.35 335.05L505.15 335.05L505.15 338.75M472.3 336L472.3 337.8L504.2 337.8L504.2 336L472.3 336M584.15 337.8L600.2 337.8L600.2 336L584.15 336L584.15 337.8M601.15 335.05L601.15 338.75L583.2 338.75L583.2 335.05L601.15 335.05M57.35 335.05L57.35 338.75L39.4 338.75L39.4 335.05L57.35 335.05M40.35 337.8L56.4 337.8L56.4 336L40.35 336L40.35 337.8M169.3 338.75L135.5 338.75L135.5 335.05L169.3 335.05L169.3 338.75M136.45 336L136.45 337.8L168.35 337.8L168.35 336L136.45 336M273.65 295.1L277.25 297.1L255.45 329.7L251.9 327.65L273.65 295.1M255.15 328.45L275.85 297.45L273.95 296.35L253.25 327.35L255.15 328.45" />
</g>
</svg>
