<?xml version="1.0" encoding="utf-8"?>
<svg version="1.1" id="Layer_1"
xmlns="http://www.w3.org/2000/svg"
xmlns:xlink="http://www.w3.org/1999/xlink"
width="43px" height="64px"
xml:space="preserve">
<g id="PathID_656" transform="matrix(1, 0, 0, 1, 20.45, 26.95)">
<path style="fill:#FFFFFF;fill-opacity:1" d="M-18.2 -26.95L21.75 -26.95L19.5 36.2L-20.45 36.2L-18.2 -26.95" />
</g>
</svg>
