<?xml version="1.0" encoding="utf-8"?>
<svg version="1.1" id="Layer_1"
xmlns="http://www.w3.org/2000/svg"
xmlns:xlink="http://www.w3.org/1999/xlink"
width="562px" height="197px"
xml:space="preserve">
<g id="PathID_206" transform="matrix(1, 0, 0, 1, -39.4, -118.65)">
<path style="fill:#FFFF00;fill-opacity:1" d="M363.2 120.85L364.9 119.9L388.85 150.9L387.15 151.85L363.2 120.85M502 297.45L500.35 298.4L476.4 267.35L478.05 266.45L502 297.45M584.15 312.85L600.2 312.85L600.2 314.65L584.15 314.65L584.15 312.85M252.3 151L276.25 120L277.85 120.9L253.9 151.95L252.3 151M56.4 312.85L56.4 314.65L40.35 314.65L40.35 312.85L56.4 312.85M163.45 266.05L165.1 266.95L141.15 298L139.5 297.05L163.45 266.05" />
<path style="fill:#000000;fill-opacity:1" d="M387.15 151.85L388.85 150.9L364.9 119.9L363.2 120.85L387.15 151.85M365.15 118.65L390.3 151.2L386.9 153.05L361.75 120.55L365.15 118.65M478.05 266.45L476.4 267.35L500.35 298.4L502 297.45L478.05 266.45M500.1 299.65L474.95 267.05L478.3 265.2L503.4 297.75L500.1 299.65M584.15 314.65L600.2 314.65L600.2 312.85L584.15 312.85L584.15 314.65M601.15 311.9L601.15 315.6L583.2 315.6L583.2 311.9L601.15 311.9M253.9 151.95L277.85 120.9L276.25 120L252.3 151L253.9 151.95M276 118.75L279.25 120.6L254.15 153.2L250.85 151.3L276 118.75M40.35 312.85L40.35 314.65L56.4 314.65L56.4 312.85L40.35 312.85M57.35 315.6L39.4 315.6L39.4 311.9L57.35 311.9L57.35 315.6M139.5 297.05L141.15 298L165.1 266.95L163.45 266.05L139.5 297.05M166.5 266.65L141.4 299.25L138.05 297.35L163.2 264.8L166.5 266.65" />
</g>
</svg>
