<?xml version="1.0" encoding="utf-8"?>
<svg version="1.1" id="Layer_1"
xmlns="http://www.w3.org/2000/svg"
xmlns:xlink="http://www.w3.org/1999/xlink"
width="561px" height="101px"
xml:space="preserve">
<g id="PathID_215" transform="matrix(1, 0, 0, 1, -39.5, -241.45)">
<path style="fill:#358A5E;fill-opacity:1" d="M40 338.3L239.6 338.3Q243.25 338.2 246 336.6Q248.7 335.05 250.95 331.8L306.5 249.6Q309.55 245.45 312.05 243.9Q315.05 242 319.8 241.95Q324.7 242 328.15 243.9Q331.4 245.65 334.3 249.6L389.85 331.8Q392.1 335.05 394.8 336.6Q397.55 338.2 401.2 338.3L600 338.3L600 341.3L401.2 341.3Q393.05 341 388.2 334.5L331.75 250.9Q326.9 244.8 319.8 244.7Q316.45 244.75 314.05 246.15Q311.75 247.55 309.05 250.9L252.6 334.5Q247.75 341 239.6 341.3L40 341.3L40 338.3" />
<path style="fill:none;stroke-width:1;stroke-linecap:round;stroke-linejoin:miter;stroke-miterlimit:3;stroke:#000000;stroke-opacity:1" d="M40 341.3L239.6 341.3Q247.75 341 252.6 334.5L309.05 250.9Q311.75 247.55 314.05 246.15Q316.45 244.75 319.8 244.7Q326.9 244.8 331.75 250.9L388.2 334.5Q393.05 341 401.2 341.3L600 341.3L600 338.3L401.2 338.3Q397.55 338.2 394.8 336.6Q392.1 335.05 389.85 331.8L334.3 249.6Q331.4 245.65 328.15 243.9Q324.7 242 319.8 241.95Q315.05 242 312.05 243.9Q309.55 245.45 306.5 249.6L250.95 331.8Q248.7 335.05 246 336.6Q243.25 338.2 239.6 338.3L40 338.3L40 341.3z" />
</g>
</svg>
