<?xml version="1.0" encoding="utf-8"?>
<svg version="1.1" id="Layer_1"
xmlns="http://www.w3.org/2000/svg"
xmlns:xlink="http://www.w3.org/1999/xlink"
width="561px" height="46px"
xml:space="preserve">
<g id="PathID_223" transform="matrix(1, 0, 0, 1, 0.15, 2.55)">
<path style="fill:#FF00FF;fill-opacity:1" d="M17.3 0.65L0.3 0.65L0.3 -2.1L17.3 -2.1L17.3 0.65M128.7 0.75L95.85 0.75L95.85 -2L128.7 -2L128.7 0.75M464.8 0.75L431.95 0.75L431.95 -2L464.8 -2L464.8 0.75M560.1 0.75L543.1 0.75L543.1 -2L560.1 -2L560.1 0.75M344.4 10.5L346.8 12.15L326.95 41.45L324.5 40L344.4 10.5M234.95 42.15L215 12.85L217.2 11.25L237.25 40.3L234.95 42.15" />
<path style="fill:none;stroke-width:0.95;stroke-linecap:butt;stroke-linejoin:miter;stroke-miterlimit:22;stroke:#000000;stroke-opacity:1" d="M17.3 0.65L0.3 0.65L0.3 -2.1L17.3 -2.1L17.3 0.65z" />
<path style="fill:none;stroke-width:0.95;stroke-linecap:butt;stroke-linejoin:miter;stroke-miterlimit:22;stroke:#000000;stroke-opacity:1" d="M128.7 0.75L95.85 0.75L95.85 -2L128.7 -2L128.7 0.75z" />
<path style="fill:none;stroke-width:0.95;stroke-linecap:butt;stroke-linejoin:miter;stroke-miterlimit:22;stroke:#000000;stroke-opacity:1" d="M464.8 0.75L431.95 0.75L431.95 -2L464.8 -2L464.8 0.75z" />
<path style="fill:none;stroke-width:0.95;stroke-linecap:butt;stroke-linejoin:miter;stroke-miterlimit:22;stroke:#000000;stroke-opacity:1" d="M560.1 0.75L543.1 0.75L543.1 -2L560.1 -2L560.1 0.75z" />
<path style="fill:none;stroke-width:0.95;stroke-linecap:butt;stroke-linejoin:miter;stroke-miterlimit:22;stroke:#000000;stroke-opacity:1" d="M344.4 10.5L346.8 12.15L326.95 41.45L324.5 40L344.4 10.5z" />
<path style="fill:none;stroke-width:0.95;stroke-linecap:butt;stroke-linejoin:miter;stroke-miterlimit:22;stroke:#000000;stroke-opacity:1" d="M234.95 42.15L215 12.85L217.2 11.25L237.25 40.3L234.95 42.15z" />
</g>
</svg>
