<?xml version="1.0" encoding="utf-8"?>
<svg version="1.1" id="Layer_1"
xmlns="http://www.w3.org/2000/svg"
xmlns:xlink="http://www.w3.org/1999/xlink"
width="561px" height="4px"
xml:space="preserve">
<g id="PathID_226" transform="matrix(1, 0, 0, 1, -0.55, -0.85)">
<path style="fill:#0000FF;fill-opacity:1" d="M544 1.3L561 1.3L561 4.3L544 4.3L544 1.3M464.8 4.3L431.95 4.3L431.95 1.3L464.8 1.3L464.8 4.3M353.6 4.3L320.8 4.3L320.8 1.3L353.6 1.3L353.6 4.3M207.65 1.3L240.5 1.3L240.5 4.3L207.65 4.3L207.65 1.3M128.95 4.3L96.1 4.3L96.1 1.3L128.95 1.3L128.95 4.3M18 1.3L18 4.3L1 4.3L1 1.3L18 1.3" />
<path style="fill:none;stroke-width:0.95;stroke-linecap:butt;stroke-linejoin:miter;stroke-miterlimit:22;stroke:#000000;stroke-opacity:1" d="M544 1.3L561 1.3L561 4.3L544 4.3L544 1.3z" />
<path style="fill:none;stroke-width:0.95;stroke-linecap:butt;stroke-linejoin:miter;stroke-miterlimit:22;stroke:#000000;stroke-opacity:1" d="M464.8 4.3L431.95 4.3L431.95 1.3L464.8 1.3L464.8 4.3z" />
<path style="fill:none;stroke-width:0.95;stroke-linecap:butt;stroke-linejoin:miter;stroke-miterlimit:22;stroke:#000000;stroke-opacity:1" d="M353.6 4.3L320.8 4.3L320.8 1.3L353.6 1.3L353.6 4.3z" />
<path style="fill:none;stroke-width:0.95;stroke-linecap:butt;stroke-linejoin:miter;stroke-miterlimit:22;stroke:#000000;stroke-opacity:1" d="M207.65 1.3L240.5 1.3L240.5 4.3L207.65 4.3L207.65 1.3z" />
<path style="fill:none;stroke-width:0.95;stroke-linecap:butt;stroke-linejoin:miter;stroke-miterlimit:22;stroke:#000000;stroke-opacity:1" d="M128.95 4.3L96.1 4.3L96.1 1.3L128.95 1.3L128.95 4.3z" />
<path style="fill:none;stroke-width:0.95;stroke-linecap:butt;stroke-linejoin:miter;stroke-miterlimit:22;stroke:#000000;stroke-opacity:1" d="M18 1.3L18 4.3L1 4.3L1 1.3L18 1.3z" />
</g>
</svg>
