<?xml version="1.0" encoding="utf-8"?>
<svg version="1.1" id="Layer_1"
xmlns="http://www.w3.org/2000/svg"
xmlns:xlink="http://www.w3.org/1999/xlink"
width="561px" height="196px"
xml:space="preserve">
<g id="PathID_229" transform="matrix(1, 0, 0, 1, 0.35, -0.35)">
<path style="fill:#FFFF00;fill-opacity:1" d="M560 0.8L560 3.55L543 3.55L543 0.8L560 0.8M436.75 47.9L458.05 20.35L460.5 21.75L439.25 49.3L436.75 47.9M349.45 165.3L326.5 194.7L324.2 192.95L347.05 163.7L349.45 165.3M237.95 193.5L235.5 194.9L212.75 165.6L214.95 164.45L237.95 193.5M103.6 20.35L124.85 47.9L122.35 49.3L101.35 21.8L103.6 20.35M0.1 0.8L17.1 0.8L17.1 3.55L0.1 3.55L0.1 0.8" />
<path style="fill:none;stroke-width:0.95;stroke-linecap:butt;stroke-linejoin:miter;stroke-miterlimit:22;stroke:#000000;stroke-opacity:1" d="M543 0.8L543 3.55L560 3.55L560 0.8L543 0.8z" />
<path style="fill:none;stroke-width:0.95;stroke-linecap:butt;stroke-linejoin:miter;stroke-miterlimit:22;stroke:#000000;stroke-opacity:1" d="M439.25 49.3L460.5 21.75L458.05 20.35L436.75 47.9L439.25 49.3z" />
<path style="fill:none;stroke-width:0.95;stroke-linecap:butt;stroke-linejoin:miter;stroke-miterlimit:22;stroke:#000000;stroke-opacity:1" d="M347.05 163.7L324.2 192.95L326.5 194.7L349.45 165.3L347.05 163.7z" />
<path style="fill:none;stroke-width:0.95;stroke-linecap:butt;stroke-linejoin:miter;stroke-miterlimit:22;stroke:#000000;stroke-opacity:1" d="M214.95 164.45L212.75 165.6L235.5 194.9L237.95 193.5L214.95 164.45z" />
<path style="fill:none;stroke-width:0.95;stroke-linecap:butt;stroke-linejoin:miter;stroke-miterlimit:22;stroke:#000000;stroke-opacity:1" d="M101.35 21.8L122.35 49.3L124.85 47.9L103.6 20.35L101.35 21.8z" />
<path style="fill:none;stroke-width:0.95;stroke-linecap:butt;stroke-linejoin:miter;stroke-miterlimit:22;stroke:#000000;stroke-opacity:1" d="M0.1 3.55L17.1 3.55L17.1 0.8L0.1 0.8L0.1 3.55z" />
</g>
</svg>
