<?xml version="1.0" encoding="utf-8"?>
<svg version="1.1" id="Layer_1"
xmlns="http://www.w3.org/2000/svg"
xmlns:xlink="http://www.w3.org/1999/xlink"
width="561px" height="68px"
xml:space="preserve">
<g id="PathID_227" transform="matrix(1, 0, 0, 1, 0.45, -0.65)">
<path style="fill:#FFFFFF;fill-opacity:1" d="M560 64.95L560 67.75L543 67.75L543 64.95L560 64.95M439.85 17.25L462.45 46.7L459.95 48.15L437.3 18.95L439.85 17.25M352 3.9L319.2 3.9L319.2 1.1L352 1.1L352 3.9M240.5 1.1L240.5 3.9L207.65 3.9L207.65 1.1L240.5 1.1M125.15 19.95L102.6 48.75L100.45 47.5L122.7 18.6L125.15 19.95M17 64.95L17 67.75L0 67.75L0 64.95L17 64.95" />
<path style="fill:none;stroke-width:0.95;stroke-linecap:butt;stroke-linejoin:miter;stroke-miterlimit:22;stroke:#000000;stroke-opacity:1" d="M560 64.95L560 67.75L543 67.75L543 64.95L560 64.95z" />
<path style="fill:none;stroke-width:0.95;stroke-linecap:butt;stroke-linejoin:miter;stroke-miterlimit:22;stroke:#000000;stroke-opacity:1" d="M439.85 17.25L462.45 46.7L459.95 48.15L437.3 18.95L439.85 17.25z" />
<path style="fill:none;stroke-width:0.95;stroke-linecap:butt;stroke-linejoin:miter;stroke-miterlimit:22;stroke:#000000;stroke-opacity:1" d="M352 3.9L319.2 3.9L319.2 1.1L352 1.1L352 3.9z" />
<path style="fill:none;stroke-width:0.95;stroke-linecap:butt;stroke-linejoin:miter;stroke-miterlimit:22;stroke:#000000;stroke-opacity:1" d="M240.5 1.1L240.5 3.9L207.65 3.9L207.65 1.1L240.5 1.1z" />
<path style="fill:none;stroke-width:0.95;stroke-linecap:butt;stroke-linejoin:miter;stroke-miterlimit:22;stroke:#000000;stroke-opacity:1" d="M125.15 19.95L102.6 48.75L100.45 47.5L122.7 18.6L125.15 19.95z" />
<path style="fill:none;stroke-width:0.95;stroke-linecap:butt;stroke-linejoin:miter;stroke-miterlimit:22;stroke:#000000;stroke-opacity:1" d="M17 64.95L17 67.75L0 67.75L0 64.95L17 64.95z" />
</g>
</svg>
