<?xml version="1.0" encoding="utf-8"?>
<svg version="1.1" id="Layer_1"
xmlns="http://www.w3.org/2000/svg"
xmlns:xlink="http://www.w3.org/1999/xlink"
width="561px" height="101px"
xml:space="preserve">
<g id="PathID_214" transform="matrix(1, 0, 0, 1, -39.5, -109.75)">
<path style="fill:#E50CE3;fill-opacity:1" d="M40 110.25L239.6 110.25Q247.75 110.55 252.6 117.05L309.05 200.65Q311.75 204 314.05 205.4Q316.45 206.8 319.8 206.85Q326.9 206.75 331.75 200.65L388.2 117.05Q393.05 110.55 401.2 110.25L600 110.25L600 113.25L401.2 113.25Q397.55 113.35 394.8 114.95Q392.1 116.5 389.85 119.75L334.3 201.95Q331.4 205.9 328.15 207.65Q324.7 209.55 319.8 209.6Q315.05 209.55 312.05 207.65Q309.55 206.1 306.5 201.95L250.95 119.75Q248.7 116.5 246 114.95Q243.25 113.35 239.6 113.25L40 113.25L40 110.25" />
<path style="fill:none;stroke-width:1;stroke-linecap:round;stroke-linejoin:miter;stroke-miterlimit:3;stroke:#000000;stroke-opacity:1" d="M40 110.25L239.6 110.25Q247.75 110.55 252.6 117.05L309.05 200.65Q311.75 204 314.05 205.4Q316.45 206.8 319.8 206.85Q326.9 206.75 331.75 200.65L388.2 117.05Q393.05 110.55 401.2 110.25L600 110.25L600 113.25L401.2 113.25Q397.55 113.35 394.8 114.95Q392.1 116.5 389.85 119.75L334.3 201.95Q331.4 205.9 328.15 207.65Q324.7 209.55 319.8 209.6Q315.05 209.55 312.05 207.65Q309.55 206.1 306.5 201.95L250.95 119.75Q248.7 116.5 246 114.95Q243.25 113.35 239.6 113.25L40 113.25L40 110.25z" />
</g>
</svg>
