<?xml version="1.0" encoding="utf-8"?>
<svg version="1.1" id="Layer_1"
xmlns="http://www.w3.org/2000/svg"
xmlns:xlink="http://www.w3.org/1999/xlink"
width="563px" height="51px"
xml:space="preserve">
<g id="PathID_162" transform="matrix(1, 0, 0, 1, 0, 0)">
<path style="fill:#000000;fill-opacity:1" d="M562 47.05L562 46.05L563 46.05L563 49.65L562.5 50.15L467.65 50.15Q460.85 50.15 454.45 47.5Q448.05 44.85 443.3 40.1L416.2 13Q411.95 8.75 406.35 6.4Q400.75 4.1 394.75 4.1L168.25 4.1Q162.25 4.1 156.65 6.4Q151 8.75 146.75 13L119.65 40.1Q114.9 44.85 108.5 47.5Q102.1 50.15 95.3 50.15L0.5 50.15L0 49.65L0 46.05L1 46.05L1 47.05L1 48.4L1 49.15L95.3 49.15Q101.9 49.15 108.1 46.6Q114.3 44.05 118.95 39.4L146.05 12.3Q150.4 7.95 156.25 5.5Q162.05 3.1 168.25 3.1L394.75 3.1Q400.95 3.1 406.75 5.5Q412.55 7.95 416.9 12.3L444 39.4Q448.65 44.05 454.85 46.6Q461.05 49.15 467.65 49.15L562 49.15L562 48.4L562 47.05" />
<path style="fill:#AFAFAF;fill-opacity:1" d="M95.3 48.4Q101.75 48.4 107.8 45.9Q113.8 43.4 118.4 38.8L145.5 11.7Q150 7.25 155.95 4.8Q161.9 2.35 168.25 2.35L394.75 2.35Q401.1 2.35 407.05 4.8Q413 7.25 417.45 11.7L444.55 38.8Q449.15 43.4 455.2 45.9Q461.2 48.4 467.65 48.4L562 48.4L562 49.15L467.65 49.15Q461.05 49.15 454.85 46.6Q448.65 44.05 444 39.4L416.9 12.3Q412.55 7.95 406.75 5.5Q400.95 3.1 394.75 3.1L168.25 3.1Q162.05 3.1 156.25 5.5Q150.4 7.95 146.05 12.3L118.95 39.4Q114.3 44.05 108.1 46.6Q101.9 49.15 95.3 49.15L1 49.15L1 48.4L95.3 48.4" />
<path style="fill:#FFFFFF;fill-opacity:1" d="M562 47.05L562 48.4L467.65 48.4Q461.2 48.4 455.2 45.9Q449.15 43.4 444.55 38.8L417.45 11.7Q413 7.25 407.05 4.8Q401.1 2.35 394.75 2.35L168.25 2.35Q161.9 2.35 155.95 4.8Q150 7.25 145.5 11.7L118.4 38.8Q113.8 43.4 107.8 45.9Q101.75 48.4 95.3 48.4L1 48.4L1 47.05L95.3 47.05Q101.5 47.05 107.3 44.65Q113.15 42.2 117.45 37.85L144.55 10.75Q149.25 6.1 155.45 3.55Q161.65 1 168.25 1L394.75 1Q401.35 1 407.55 3.55Q413.75 6.1 418.4 10.75L445.5 37.85Q449.85 42.2 455.65 44.65L455.65 44.7Q461.5 47.05 467.65 47.05L562 47.05" />
<path style="fill:#A5A5A5;fill-opacity:1" d="M95.3 46.05Q101.3 46.05 106.9 43.75Q112.55 41.4 116.75 37.15L143.85 10.05Q148.65 5.3 155.05 2.65Q161.45 0 168.25 0L394.75 0Q401.55 0 407.95 2.65Q414.35 5.3 419.1 10.05L446.2 37.15Q450.45 41.4 456.05 43.75Q461.3 45.9 466.85 46.05L562 46.05L562 47.05L467.65 47.05Q461.5 47.05 455.65 44.7L455.65 44.65Q449.85 42.2 445.5 37.85L418.4 10.75Q413.75 6.1 407.55 3.55Q401.35 1 394.75 1L168.25 1Q161.65 1 155.45 3.55Q149.25 6.1 144.55 10.75L117.45 37.85Q113.15 42.2 107.3 44.65Q101.5 47.05 95.3 47.05L1 47.05L1 46.05L95.3 46.05" />
</g>
</svg>
