<?xml version="1.0" encoding="utf-8"?>
<svg version="1.1" id="Layer_1"
xmlns="http://www.w3.org/2000/svg"
xmlns:xlink="http://www.w3.org/1999/xlink"
width="546px" height="158px"
xml:space="preserve">
<g id="PathID_148" transform="matrix(1, 0, 0, 1, 1.65, 86.05)">
<path style="fill:#E36408;fill-opacity:1" d="M-1.2 -85.6L15.8 -85.6L15.8 -82.85L-1.2 -82.85L-1.2 -85.6M89.4 -69.1L117.85 -40.7L115.55 -39.05L87.05 -67.35L89.4 -69.1M457.25 -67.35L428.75 -39.05L426.45 -40.7L454.9 -69.1L457.25 -67.35M543.6 -85.6L543.6 -82.85L526.6 -82.85L526.6 -85.6L543.6 -85.6M343.5 40.95L345.8 42.6L317.3 71L315.05 69.25L343.5 40.95M229.25 69.25L227 71L198.5 42.6L200.8 40.95L229.25 69.25" />
<path style="fill:none;stroke-width:0.95;stroke-linecap:butt;stroke-linejoin:miter;stroke-miterlimit:22;stroke:#000000;stroke-opacity:1" d="M-1.2 -82.85L15.8 -82.85L15.8 -85.6L-1.2 -85.6L-1.2 -82.85z" />
<path style="fill:none;stroke-width:0.95;stroke-linecap:butt;stroke-linejoin:miter;stroke-miterlimit:22;stroke:#000000;stroke-opacity:1" d="M87.05 -67.35L115.55 -39.05L117.85 -40.7L89.4 -69.1L87.05 -67.35z" />
<path style="fill:none;stroke-width:0.95;stroke-linecap:butt;stroke-linejoin:miter;stroke-miterlimit:22;stroke:#000000;stroke-opacity:1" d="M457.25 -67.35L428.75 -39.05L426.45 -40.7L454.9 -69.1L457.25 -67.35z" />
<path style="fill:none;stroke-width:0.95;stroke-linecap:butt;stroke-linejoin:miter;stroke-miterlimit:22;stroke:#000000;stroke-opacity:1" d="M526.6 -85.6L526.6 -82.85L543.6 -82.85L543.6 -85.6L526.6 -85.6z" />
<path style="fill:none;stroke-width:0.95;stroke-linecap:butt;stroke-linejoin:miter;stroke-miterlimit:22;stroke:#000000;stroke-opacity:1" d="M343.5 40.95L345.8 42.6L317.3 71L315.05 69.25L343.5 40.95z" />
<path style="fill:none;stroke-width:0.95;stroke-linecap:butt;stroke-linejoin:miter;stroke-miterlimit:22;stroke:#000000;stroke-opacity:1" d="M200.8 40.95L198.5 42.6L227 71L229.25 69.25L200.8 40.95z" />
</g>
</svg>
