<?xml version="1.0" encoding="utf-8"?>
<svg version="1.1" id="Layer_1"
xmlns="http://www.w3.org/2000/svg"
xmlns:xlink="http://www.w3.org/1999/xlink"
width="561px" height="69px"
xml:space="preserve">
<g id="PathID_219" transform="matrix(1, 0, 0, 1, -39.5, -248.55)">
<path style="fill:#10F9F6;fill-opacity:1" d="M131.95 258.55Q129.5 255.35 126.95 253.8Q124.15 252.1 120.6 252.05L40 252.05L40 249.05L120.6 249.05Q124.8 249.2 128.05 251Q130.9 252.6 133.6 255.85L173.3 307.55Q177.45 313.25 182.3 313.2L460.9 313.2Q465.75 313.25 469.9 307.55L509.6 255.85Q512.3 252.6 515.15 251Q518.4 249.2 522.6 249.05L600 249.05L600 252.05L522.6 252.05Q519.05 252.1 516.25 253.8Q513.7 255.35 511.25 258.55L471.95 310.1Q466.8 316.2 461.65 316.2L181.55 316.2Q176.4 316.2 171.25 310.1L131.95 258.55" />
<path style="fill:none;stroke-width:1;stroke-linecap:round;stroke-linejoin:miter;stroke-miterlimit:3;stroke:#000000;stroke-opacity:1" d="M171.25 310.1Q176.4 316.2 181.55 316.2L461.65 316.2Q466.8 316.2 471.95 310.1L511.25 258.55Q513.7 255.35 516.25 253.8Q519.05 252.1 522.6 252.05L600 252.05L600 249.05L522.6 249.05Q518.4 249.2 515.15 251Q512.3 252.6 509.6 255.85L469.9 307.55Q465.75 313.25 460.9 313.2L182.3 313.2Q177.45 313.25 173.3 307.55L133.6 255.85Q130.9 252.6 128.05 251Q124.8 249.2 120.6 249.05L40 249.05L40 252.05L120.6 252.05Q124.15 252.1 126.95 253.8Q129.5 255.35 131.95 258.55L171.25 310.1z" />
</g>
</svg>
