<?xml version="1.0" encoding="utf-8"?>
<svg version="1.1" id="Layer_1"
xmlns="http://www.w3.org/2000/svg"
xmlns:xlink="http://www.w3.org/1999/xlink"
width="106px" height="160px"
xml:space="preserve">
<g id="PathID_72" transform="matrix(1, 0, 0, 1, 0, 0)">
<path style="fill:#CC3300;fill-opacity:0.74902" d="M12 0L94 0Q106 0 106 12L106 148Q106 160 94 160L12 160Q0 160 0 148L0 12Q0 0 12 0" />
</g>
</svg>
