<?xml version="1.0" encoding="utf-8"?>
<svg version="1.1" id="Layer_1"
xmlns="http://www.w3.org/2000/svg"
xmlns:xlink="http://www.w3.org/1999/xlink"
width="561px" height="69px"
xml:space="preserve">
<g id="PathID_218" transform="matrix(1, 0, 0, 1, -39.5, -136)">
<path style="fill:#FFFFFF;fill-opacity:1" d="M171.25 142.6Q176.4 136.5 181.55 136.5L461.65 136.5Q466.8 136.5 471.95 142.6L511.25 194.15Q513.7 197.35 516.25 198.9Q519.05 200.6 522.6 200.65L600 200.65L600 203.65L522.6 203.65Q518.4 203.5 515.15 201.7Q512.3 200.1 509.6 196.85L469.9 145.15Q465.75 139.45 460.9 139.5L182.3 139.5Q177.45 139.45 173.3 145.15L133.6 196.85Q130.9 200.1 128.05 201.7Q124.8 203.5 120.6 203.65L100.8 203.65L90.75 203.65L40 203.65L40 200.65L90.75 200.65L100.8 200.65L120.6 200.65Q124.15 200.6 126.95 198.9Q129.5 197.35 131.95 194.15L171.25 142.6" />
<path style="fill:none;stroke-width:1;stroke-linecap:round;stroke-linejoin:miter;stroke-miterlimit:3;stroke:#000000;stroke-opacity:1" d="M171.25 142.6Q176.4 136.5 181.55 136.5L461.65 136.5Q466.8 136.5 471.95 142.6L511.25 194.15Q513.7 197.35 516.25 198.9Q519.05 200.6 522.6 200.65L600 200.65L600 203.65L522.6 203.65Q518.4 203.5 515.15 201.7Q512.3 200.1 509.6 196.85L469.9 145.15Q465.75 139.45 460.9 139.5L182.3 139.5Q177.45 139.45 173.3 145.15L133.6 196.85Q130.9 200.1 128.05 201.7Q124.8 203.5 120.6 203.65L100.8 203.65L90.75 203.65L40 203.65L40 200.65L90.75 200.65L100.8 200.65L120.6 200.65Q124.15 200.6 126.95 198.9Q129.5 197.35 131.95 194.15L171.25 142.6z" />
</g>
</svg>
