<?xml version="1.0" encoding="utf-8"?>
<svg version="1.1" id="Layer_1"
xmlns="http://www.w3.org/2000/svg"
xmlns:xlink="http://www.w3.org/1999/xlink"
width="561px" height="196px"
xml:space="preserve">
<g id="PathID_230" transform="matrix(1, 0, 0, 1, 0.7, -0.75)">
<path style="fill:#F26522;fill-opacity:1" d="M542.8 3.95L542.8 1.2L559.8 1.2L559.8 3.95L542.8 3.95M461.6 20.75L438.85 49.9L436.55 48.3L459.45 18.95L461.6 20.75M326.25 195.4L323.9 193.45L346.55 164.15L349.05 166.15L326.25 195.4M237.25 193.75L234.7 195.2L212.7 166.25L214.75 164.85L237.25 193.75M122.1 50.05L99.3 20.75L101.55 19.35L124.5 48.55L122.1 50.05M16.75 3.95L-0.25 3.95L-0.25 1.2L16.75 1.2L16.75 3.95" />
<path style="fill:none;stroke-width:0.95;stroke-linecap:butt;stroke-linejoin:miter;stroke-miterlimit:22;stroke:#000000;stroke-opacity:1" d="M542.8 3.95L542.8 1.2L559.8 1.2L559.8 3.95L542.8 3.95z" />
<path style="fill:none;stroke-width:0.95;stroke-linecap:butt;stroke-linejoin:miter;stroke-miterlimit:22;stroke:#000000;stroke-opacity:1" d="M461.6 20.75L438.85 49.9L436.55 48.3L459.45 18.95L461.6 20.75z" />
<path style="fill:none;stroke-width:0.95;stroke-linecap:butt;stroke-linejoin:miter;stroke-miterlimit:22;stroke:#000000;stroke-opacity:1" d="M326.25 195.4L323.9 193.45L346.55 164.15L349.05 166.15L326.25 195.4z" />
<path style="fill:none;stroke-width:0.95;stroke-linecap:butt;stroke-linejoin:miter;stroke-miterlimit:22;stroke:#000000;stroke-opacity:1" d="M237.25 193.75L234.7 195.2L212.7 166.25L214.75 164.85L237.25 193.75z" />
<path style="fill:none;stroke-width:0.95;stroke-linecap:butt;stroke-linejoin:miter;stroke-miterlimit:22;stroke:#000000;stroke-opacity:1" d="M122.1 50.05L99.3 20.75L101.55 19.35L124.5 48.55L122.1 50.05z" />
<path style="fill:none;stroke-width:0.95;stroke-linecap:butt;stroke-linejoin:miter;stroke-miterlimit:22;stroke:#000000;stroke-opacity:1" d="M16.75 3.95L-0.25 3.95L-0.25 1.2L16.75 1.2L16.75 3.95z" />
</g>
</svg>
