{"frames": [

{
	"filename": "fisherman00",
	"frame": {"x":652,"y":1061,"w":170,"h":515},
	"rotated": false,
	"trimmed": true,
	"spriteSourceSize": {"x":231,"y":77,"w":170,"h":515},
	"sourceSize": {"w":401,"h":592}
},
{
	"filename": "fisherman01",
	"frame": {"x":665,"y":1578,"w":158,"h":437},
	"rotated": false,
	"trimmed": true,
	"spriteSourceSize": {"x":243,"y":155,"w":158,"h":437},
	"sourceSize": {"w":401,"h":592}
},
{
	"filename": "fisherman02",
	"frame": {"x":956,"y":522,"w":155,"h":356},
	"rotated": false,
	"trimmed": true,
	"spriteSourceSize": {"x":246,"y":236,"w":155,"h":356},
	"sourceSize": {"w":401,"h":592}
},
{
	"filename": "fisherman03",
	"frame": {"x":975,"y":1561,"w":145,"h":366},
	"rotated": false,
	"trimmed": true,
	"spriteSourceSize": {"x":256,"y":226,"w":145,"h":366},
	"sourceSize": {"w":401,"h":592}
},
{
	"filename": "fisherman04",
	"frame": {"x":1122,"y":1561,"w":145,"h":362},
	"rotated": false,
	"trimmed": true,
	"spriteSourceSize": {"x":256,"y":230,"w":145,"h":362},
	"sourceSize": {"w":401,"h":592}
},
{
	"filename": "fisherman05",
	"frame": {"x":825,"y":1561,"w":148,"h":477},
	"rotated": false,
	"trimmed": true,
	"spriteSourceSize": {"x":253,"y":115,"w":148,"h":477},
	"sourceSize": {"w":401,"h":592}
},
{
	"filename": "fisherman06",
	"frame": {"x":546,"y":2,"w":356,"h":532},
	"rotated": false,
	"trimmed": true,
	"spriteSourceSize": {"x":45,"y":60,"w":356,"h":532},
	"sourceSize": {"w":401,"h":592}
},
{
	"filename": "fisherman07",
	"frame": {"x":824,"y":1061,"w":387,"h":498},
	"rotated": false,
	"trimmed": true,
	"spriteSourceSize": {"x":14,"y":94,"w":387,"h":498},
	"sourceSize": {"w":401,"h":592}
},
{
	"filename": "fisherman08",
	"frame": {"x":262,"y":1688,"w":401,"h":356},
	"rotated": false,
	"trimmed": true,
	"spriteSourceSize": {"x":0,"y":236,"w":186,"h":134},
	"sourceSize": {"w":401,"h":592}
},
{
	"filename": "fisherman09",
	"frame": {"x":645,"y":536,"w":309,"h":523},
	"rotated": false,
	"trimmed": true,
	"spriteSourceSize": {"x":92,"y":69,"w":309,"h":523},
	"sourceSize": {"w":401,"h":592}
},
{
	"filename": "fisherman10",
	"frame": {"x":2,"y":2,"w":157,"h":592},
	"rotated": false,
	"trimmed": true,
	"spriteSourceSize": {"x":244,"y":0,"w":157,"h":592},
	"sourceSize": {"w":401,"h":592}
},
{
	"filename": "fisherman11",
	"frame": {"x":2,"y":596,"w":126,"h":585},
	"rotated": false,
	"trimmed": true,
	"spriteSourceSize": {"x":275,"y":7,"w":126,"h":585},
	"sourceSize": {"w":401,"h":592}
},
{
	"filename": "fisherman12",
	"frame": {"x":2,"y":1183,"w":128,"h":572},
	"rotated": false,
	"trimmed": true,
	"spriteSourceSize": {"x":273,"y":20,"w":128,"h":572},
	"sourceSize": {"w":401,"h":592}
},
{
	"filename": "fisherman13",
	"frame": {"x":130,"y":596,"w":128,"h":566},
	"rotated": false,
	"trimmed": true,
	"spriteSourceSize": {"x":273,"y":26,"w":128,"h":566},
	"sourceSize": {"w":401,"h":592}
},
{
	"filename": "fisherman14",
	"frame": {"x":161,"y":2,"w":128,"h":565},
	"rotated": false,
	"trimmed": true,
	"spriteSourceSize": {"x":273,"y":27,"w":128,"h":565},
	"sourceSize": {"w":401,"h":592}
},
{
	"filename": "fisherman15",
	"frame": {"x":260,"y":569,"w":128,"h":564},
	"rotated": false,
	"trimmed": true,
	"spriteSourceSize": {"x":273,"y":28,"w":128,"h":564},
	"sourceSize": {"w":401,"h":592}
},
{
	"filename": "fisherman16",
	"frame": {"x":132,"y":1164,"w":128,"h":564},
	"rotated": false,
	"trimmed": true,
	"spriteSourceSize": {"x":273,"y":28,"w":128,"h":564},
	"sourceSize": {"w":401,"h":592}
},
{
	"filename": "fisherman17",
	"frame": {"x":291,"y":2,"w":128,"h":558},
	"rotated": false,
	"trimmed": true,
	"spriteSourceSize": {"x":273,"y":34,"w":128,"h":558},
	"sourceSize": {"w":401,"h":592}
},
{
	"filename": "fisherman18",
	"frame": {"x":262,"y":1135,"w":128,"h":551},
	"rotated": false,
	"trimmed": true,
	"spriteSourceSize": {"x":273,"y":41,"w":128,"h":551},
	"sourceSize": {"w":401,"h":592}
},
{
	"filename": "fisherman19",
	"frame": {"x":392,"y":1113,"w":128,"h":541},
	"rotated": false,
	"trimmed": true,
	"spriteSourceSize": {"x":273,"y":51,"w":128,"h":541},
	"sourceSize": {"w":401,"h":592}
},
{
	"filename": "fisherman20",
	"frame": {"x":515,"y":548,"w":128,"h":535},
	"rotated": false,
	"trimmed": true,
	"spriteSourceSize": {"x":273,"y":57,"w":128,"h":535},
	"sourceSize": {"w":401,"h":592}
},
{
	"filename": "fisherman21",
	"frame": {"x":522,"y":1085,"w":128,"h":528},
	"rotated": false,
	"trimmed": true,
	"spriteSourceSize": {"x":273,"y":64,"w":128,"h":528},
	"sourceSize": {"w":401,"h":592}
},
{
	"filename": "fisherman22",
	"frame": {"x":904,"y":2,"w":128,"h":518},
	"rotated": false,
	"trimmed": true,
	"spriteSourceSize": {"x":273,"y":74,"w":128,"h":518},
	"sourceSize": {"w":401,"h":592}
}],
"meta": {
	"app": "http://www.texturepacker.com",
	"version": "1.0",
	"image": "fisherman_sprite.png",
	"format": "RGBA8888",
	"size": {"w":1392,"h":2048},
	"scale": "0.2",
	"smartupdate": "$TexturePacker:SmartUpdate:fb56f261b1eb04e3215824426595f64c$"
}
}