{"frames": [

{
	"filename": "Spot00",
	"frame": {"x":915,"y":904,"w":274,"h":64},
	"rotated": false,
	"trimmed": true,
	"spriteSourceSize": {"x":43,"y":21,"w":274,"h":64},
	"sourceSize": {"w":348,"h":80}
},
{
	"filename": "Spot01",
	"frame": {"x":918,"y":516,"w":280,"h":66},
	"rotated": false,
	"trimmed": true,
	"spriteSourceSize": {"x":40,"y":20,"w":280,"h":66},
	"sourceSize": {"w":348,"h":80}
},
{
	"filename": "Spot02",
	"frame": {"x":918,"y":446,"w":286,"h":68},
	"rotated": false,
	"trimmed": true,
	"spriteSourceSize": {"x":37,"y":19,"w":286,"h":68},
	"sourceSize": {"w":348,"h":80}
},
{
	"filename": "Spot03",
	"frame": {"x":918,"y":298,"w":290,"h":68},
	"rotated": false,
	"trimmed": true,
	"spriteSourceSize": {"x":35,"y":20,"w":290,"h":68},
	"sourceSize": {"w":348,"h":80}
},
{
	"filename": "Spot04",
	"frame": {"x":918,"y":226,"w":296,"h":70},
	"rotated": false,
	"trimmed": true,
	"spriteSourceSize": {"x":32,"y":19,"w":296,"h":70},
	"sourceSize": {"w":348,"h":80}
},
{
	"filename": "Spot05",
	"frame": {"x":918,"y":154,"w":302,"h":70},
	"rotated": false,
	"trimmed": true,
	"spriteSourceSize": {"x":29,"y":19,"w":302,"h":70},
	"sourceSize": {"w":348,"h":80}
},
{
	"filename": "Spot06",
	"frame": {"x":608,"y":506,"w":308,"h":72},
	"rotated": false,
	"trimmed": true,
	"spriteSourceSize": {"x":25,"y":18,"w":308,"h":72},
	"sourceSize": {"w":348,"h":80}
},
{
	"filename": "Spot07",
	"frame": {"x":918,"y":2,"w":314,"h":74},
	"rotated": false,
	"trimmed": true,
	"spriteSourceSize": {"x":22,"y":17,"w":314,"h":74},
	"sourceSize": {"w":348,"h":80}
},
{
	"filename": "Spot08",
	"frame": {"x":914,"y":78,"w":320,"h":74},
	"rotated": false,
	"trimmed": true,
	"spriteSourceSize": {"x":19,"y":18,"w":320,"h":74},
	"sourceSize": {"w":348,"h":80}
},
{
	"filename": "Spot09",
	"frame": {"x":908,"y":368,"w":326,"h":76},
	"rotated": false,
	"trimmed": true,
	"spriteSourceSize": {"x":16,"y":17,"w":326,"h":76},
	"sourceSize": {"w":348,"h":80}
},
{
	"filename": "Spot10",
	"frame": {"x":835,"y":822,"w":322,"h":80},
	"rotated": false,
	"trimmed": true,
	"spriteSourceSize": {"x":13,"y":15,"w":322,"h":80},
	"sourceSize": {"w":348,"h":80}
},
{
	"filename": "Spot11",
	"frame": {"x":835,"y":740,"w":338,"h":80},
	"rotated": false,
	"trimmed": true,
	"spriteSourceSize": {"x":10,"y":16,"w":338,"h":80},
	"sourceSize": {"w":348,"h":80}
},
{
	"filename": "Spot12",
	"frame": {"x":872,"y":584,"w":326,"h":74},
	"rotated": false,
	"trimmed": true,
	"spriteSourceSize": {"x":10,"y":18,"w":326,"h":74},
	"sourceSize": {"w":348,"h":80}
},
{
	"filename": "Spot13",
	"frame": {"x":864,"y":660,"w":348,"h":78},
	"rotated": false,
	"trimmed": true,
	"spriteSourceSize": {"x":0,"y":16,"w":348,"h":78},
	"sourceSize": {"w":348,"h":80}
},
{
	"filename": "Spot14",
	"frame": {"x":915,"y":904,"w":274,"h":64},
	"rotated": false,
	"trimmed": true,
	"spriteSourceSize": {"x":43,"y":21,"w":274,"h":64},
	"sourceSize": {"w":348,"h":80}
}],
"meta": {
	"app": "http://www.texturepacker.com",
	"version": "1.0",
	"image": "dog_fish_spot_sprite.png",
	"format": "RGBA8888",
	"size": {"w":1236,"h":1020},
	"scale": "0.2",
	"smartupdate": "$TexturePacker:SmartUpdate:fb56f261b1eb04e3215824426595f64c$"
}
}